------------------
System Information
------------------
      Time of this report: 11/22/2017, 20:24:40
             Machine name: DESKTOP-G0GDMEU
               Machine Id: {35F0EF0F-8B4F-4B69-9561-0B5F9AABA0A2}
         Operating System: Windows 10 Home 64-bit (10.0, Build 16299) (16299.rs3_release.170928-1534)
                 Language: English (Regional Setting: English)
      System Manufacturer: ASUSTeK COMPUTER INC.
             System Model: GL702VMK
                     BIOS: GL702VMK.202
                Processor: Intel(R) Core(TM) i7-7700HQ CPU @ 2.80GHz (8 CPUs), ~2.8GHz
                   Memory: 16384MB RAM
      Available OS Memory: 16336MB RAM
                Page File: 6540MB used, 12740MB available
              Windows Dir: C:\WINDOWS
          DirectX Version: DirectX 12
      DX Setup Parameters: Not found
         User DPI Setting: 96 DPI (100 percent)
       System DPI Setting: 96 DPI (100 percent)
          DWM DPI Scaling: Disabled
                 Miracast: Available, with HDCP
Microsoft Graphics Hybrid: Not Supported
           DxDiag Version: 10.00.16299.0015 64bit Unicode

------------
DxDiag Notes
------------
      Display Tab 1: No problems found.
        Sound Tab 1: No problems found.
          Input Tab: No problems found.

--------------------
DirectX Debug Levels
--------------------
Direct3D:    0/4 (retail)
DirectDraw:  0/4 (retail)
DirectInput: 0/5 (retail)
DirectMusic: 0/5 (retail)
DirectPlay:  0/9 (retail)
DirectSound: 0/5 (retail)
DirectShow:  0/6 (retail)

---------------
Display Devices
---------------
           Card name: NVIDIA GeForce GTX 1060
        Manufacturer: NVIDIA
           Chip type: GeForce GTX 1060
            DAC type: Integrated RAMDAC
         Device Type: Full Device
          Device Key: Enum\PCI\VEN_10DE&DEV_1C60&SUBSYS_17601043&REV_A1
       Device Status: 0180200A [DN_DRIVER_LOADED|DN_STARTED|DN_DISABLEABLE|DN_NT_ENUMERATOR|DN_NT_DRIVER] 
 Device Problem Code: No Problem
 Driver Problem Code: Unknown
      Display Memory: 14217 MB
    Dedicated Memory: 6049 MB
       Shared Memory: 8168 MB
        Current Mode: 1920 x 1080 (32 bit) (75Hz)
         HDR Support: Not Supported
    Display Topology: Internal
 Display Color Space: DXGI_COLOR_SPACE_RGB_FULL_G22_NONE_P709
     Color Primaries: Red(0.637219,0.348156), Green(0.334484,0.628430), Blue(0.154797,0.050305), White Point(0.313977,0.329602)
   Display Luminance: Min Luminance = 0.500000, Max Luminance = 270.000000, MaxFullFrameLuminance = 270.000000
        Monitor Name: Generic PnP Monitor
       Monitor Model: unknown
          Monitor Id: LGD04E8
         Native Mode: 1920 x 1080(p) (75.002Hz)
         Output Type: Internal
Monitor Advanced Color Capabilities: None
Display Pixel Format: DISPLAYCONFIG_PIXELFORMAT_32BPP
         Driver Name: C:\WINDOWS\System32\DriverStore\FileRepository\nvami.inf_amd64_4388e33aefc42cce\nvldumdx.dll,C:\WINDOWS\System32\DriverStore\FileRepository\nvami.inf_amd64_4388e33aefc42cce\nvldumdx.dll,C:\WINDOWS\System32\DriverStore\FileRepository\nvami.inf_amd64_4388e33aefc42cce\nvldumdx.dll,C:\WINDOWS\System32\DriverStore\FileRepository\nvami.inf_amd64_4388e33aefc42cce\nvldumdx.dll
 Driver File Version: 22.21.0013.8528 (English)
      Driver Version: 22.21.13.8528
         DDI Version: 12
      Feature Levels: 12_1,12_0,11_1,11_0,10_1,10_0,9_3,9_2,9_1
        Driver Model: WDDM 2.2
 Graphics Preemption: Pixel
  Compute Preemption: Dispatch
            Miracast: Not Supported by Graphics driver
 Hybrid Graphics GPU: Not Supported
      Power P-states: Not Supported
   Driver Attributes: Final Retail
    Driver Date/Size: 8/8/2017 5:00:00 PM, 893272 bytes
         WHQL Logo'd: Yes
     WHQL Date Stamp: Unknown
   Device Identifier: {D7B71E3E-5F20-11CF-A352-6D371BC2DB35}
           Vendor ID: 0x10DE
           Device ID: 0x1C60
           SubSys ID: 0x17601043
         Revision ID: 0x00A1
  Driver Strong Name: oem37.inf:0f066de3eeedb943:Section242:22.21.13.8528:pci\ven_10de&dev_1c60&subsys_17601043
      Rank Of Driver: 00D10001
         Video Accel: 
         DXVA2 Modes: DXVA2_ModeMPEG2_VLD  DXVA2_ModeVC1_D2010  DXVA2_ModeVC1_VLD  DXVA2_ModeH264_VLD_Stereo_Progressive_NoFGT  DXVA2_ModeH264_VLD_Stereo_NoFGT  DXVA2_ModeH264_VLD_NoFGT  DXVA2_ModeHEVC_VLD_Main  DXVA2_ModeHEVC_VLD_Main10  DXVA2_ModeMPEG4pt2_VLD_Simple  DXVA2_ModeMPEG4pt2_VLD_AdvSimple_NoGMC  
   Deinterlace Caps: {6CB69578-7617-4637-91E5-1C02DB810285}: Format(In/Out)=(YUY2,YUY2) Frames(Prev/Fwd/Back)=(0,0,0) Caps=VideoProcess_YUV2RGB VideoProcess_StretchX VideoProcess_StretchY DeinterlaceTech_PixelAdaptive 
                     {F9F19DA5-3B09-4B2F-9D89-C64753E3EAAB}: Format(In/Out)=(YUY2,YUY2) Frames(Prev/Fwd/Back)=(0,0,0) Caps=VideoProcess_YUV2RGB VideoProcess_StretchX VideoProcess_StretchY 
                     {5A54A0C9-C7EC-4BD9-8EDE-F3C75DC4393B}: Format(In/Out)=(YUY2,YUY2) Frames(Prev/Fwd/Back)=(0,0,0) Caps=VideoProcess_YUV2RGB VideoProcess_StretchX VideoProcess_StretchY 
                     {335AA36E-7884-43A4-9C91-7F87FAF3E37E}: Format(In/Out)=(YUY2,YUY2) Frames(Prev/Fwd/Back)=(0,0,0) Caps=VideoProcess_YUV2RGB VideoProcess_StretchX VideoProcess_StretchY DeinterlaceTech_BOBVerticalStretch 
                     {6CB69578-7617-4637-91E5-1C02DB810285}: Format(In/Out)=(UYVY,UYVY) Frames(Prev/Fwd/Back)=(0,0,0) Caps=VideoProcess_YUV2RGB VideoProcess_StretchX VideoProcess_StretchY DeinterlaceTech_PixelAdaptive 
                     {F9F19DA5-3B09-4B2F-9D89-C64753E3EAAB}: Format(In/Out)=(UYVY,UYVY) Frames(Prev/Fwd/Back)=(0,0,0) Caps=VideoProcess_YUV2RGB VideoProcess_StretchX VideoProcess_StretchY 
                     {5A54A0C9-C7EC-4BD9-8EDE-F3C75DC4393B}: Format(In/Out)=(UYVY,UYVY) Frames(Prev/Fwd/Back)=(0,0,0) Caps=VideoProcess_YUV2RGB VideoProcess_StretchX VideoProcess_StretchY 
                     {335AA36E-7884-43A4-9C91-7F87FAF3E37E}: Format(In/Out)=(UYVY,UYVY) Frames(Prev/Fwd/Back)=(0,0,0) Caps=VideoProcess_YUV2RGB VideoProcess_StretchX VideoProcess_StretchY DeinterlaceTech_BOBVerticalStretch 
                     {6CB69578-7617-4637-91E5-1C02DB810285}: Format(In/Out)=(YV12,0x32315659) Frames(Prev/Fwd/Back)=(0,0,0) Caps=VideoProcess_YUV2RGB VideoProcess_StretchX VideoProcess_StretchY DeinterlaceTech_PixelAdaptive 
                     {F9F19DA5-3B09-4B2F-9D89-C64753E3EAAB}: Format(In/Out)=(YV12,0x32315659) Frames(Prev/Fwd/Back)=(0,0,0) Caps=VideoProcess_YUV2RGB VideoProcess_StretchX VideoProcess_StretchY 
                     {5A54A0C9-C7EC-4BD9-8EDE-F3C75DC4393B}: Format(In/Out)=(YV12,0x32315659) Frames(Prev/Fwd/Back)=(0,0,0) Caps=VideoProcess_YUV2RGB VideoProcess_StretchX VideoProcess_StretchY 
                     {335AA36E-7884-43A4-9C91-7F87FAF3E37E}: Format(In/Out)=(YV12,0x32315659) Frames(Prev/Fwd/Back)=(0,0,0) Caps=VideoProcess_YUV2RGB VideoProcess_StretchX VideoProcess_StretchY DeinterlaceTech_BOBVerticalStretch 
                     {6CB69578-7617-4637-91E5-1C02DB810285}: Format(In/Out)=(NV12,0x3231564e) Frames(Prev/Fwd/Back)=(0,0,0) Caps=VideoProcess_YUV2RGB VideoProcess_StretchX VideoProcess_StretchY DeinterlaceTech_PixelAdaptive 
                     {F9F19DA5-3B09-4B2F-9D89-C64753E3EAAB}: Format(In/Out)=(NV12,0x3231564e) Frames(Prev/Fwd/Back)=(0,0,0) Caps=VideoProcess_YUV2RGB VideoProcess_StretchX VideoProcess_StretchY 
                     {5A54A0C9-C7EC-4BD9-8EDE-F3C75DC4393B}: Format(In/Out)=(NV12,0x3231564e) Frames(Prev/Fwd/Back)=(0,0,0) Caps=VideoProcess_YUV2RGB VideoProcess_StretchX VideoProcess_StretchY 
                     {335AA36E-7884-43A4-9C91-7F87FAF3E37E}: Format(In/Out)=(NV12,0x3231564e) Frames(Prev/Fwd/Back)=(0,0,0) Caps=VideoProcess_YUV2RGB VideoProcess_StretchX VideoProcess_StretchY DeinterlaceTech_BOBVerticalStretch 
                     {6CB69578-7617-4637-91E5-1C02DB810285}: Format(In/Out)=(IMC1,UNKNOWN) Frames(Prev/Fwd/Back)=(0,0,0) Caps=
                     {F9F19DA5-3B09-4B2F-9D89-C64753E3EAAB}: Format(In/Out)=(IMC1,UNKNOWN) Frames(Prev/Fwd/Back)=(0,0,0) Caps=
                     {5A54A0C9-C7EC-4BD9-8EDE-F3C75DC4393B}: Format(In/Out)=(IMC1,UNKNOWN) Frames(Prev/Fwd/Back)=(0,0,0) Caps=
                     {335AA36E-7884-43A4-9C91-7F87FAF3E37E}: Format(In/Out)=(IMC1,UNKNOWN) Frames(Prev/Fwd/Back)=(0,0,0) Caps=
                     {6CB69578-7617-4637-91E5-1C02DB810285}: Format(In/Out)=(IMC2,UNKNOWN) Frames(Prev/Fwd/Back)=(0,0,0) Caps=
                     {F9F19DA5-3B09-4B2F-9D89-C64753E3EAAB}: Format(In/Out)=(IMC2,UNKNOWN) Frames(Prev/Fwd/Back)=(0,0,0) Caps=
                     {5A54A0C9-C7EC-4BD9-8EDE-F3C75DC4393B}: Format(In/Out)=(IMC2,UNKNOWN) Frames(Prev/Fwd/Back)=(0,0,0) Caps=
                     {335AA36E-7884-43A4-9C91-7F87FAF3E37E}: Format(In/Out)=(IMC2,UNKNOWN) Frames(Prev/Fwd/Back)=(0,0,0) Caps=
                     {6CB69578-7617-4637-91E5-1C02DB810285}: Format(In/Out)=(IMC3,UNKNOWN) Frames(Prev/Fwd/Back)=(0,0,0) Caps=
                     {F9F19DA5-3B09-4B2F-9D89-C64753E3EAAB}: Format(In/Out)=(IMC3,UNKNOWN) Frames(Prev/Fwd/Back)=(0,0,0) Caps=
                     {5A54A0C9-C7EC-4BD9-8EDE-F3C75DC4393B}: Format(In/Out)=(IMC3,UNKNOWN) Frames(Prev/Fwd/Back)=(0,0,0) Caps=
                     {335AA36E-7884-43A4-9C91-7F87FAF3E37E}: Format(In/Out)=(IMC3,UNKNOWN) Frames(Prev/Fwd/Back)=(0,0,0) Caps=
                     {6CB69578-7617-4637-91E5-1C02DB810285}: Format(In/Out)=(IMC4,UNKNOWN) Frames(Prev/Fwd/Back)=(0,0,0) Caps=
                     {F9F19DA5-3B09-4B2F-9D89-C64753E3EAAB}: Format(In/Out)=(IMC4,UNKNOWN) Frames(Prev/Fwd/Back)=(0,0,0) Caps=
                     {5A54A0C9-C7EC-4BD9-8EDE-F3C75DC4393B}: Format(In/Out)=(IMC4,UNKNOWN) Frames(Prev/Fwd/Back)=(0,0,0) Caps=
                     {335AA36E-7884-43A4-9C91-7F87FAF3E37E}: Format(In/Out)=(IMC4,UNKNOWN) Frames(Prev/Fwd/Back)=(0,0,0) Caps=
                     {6CB69578-7617-4637-91E5-1C02DB810285}: Format(In/Out)=(S340,UNKNOWN) Frames(Prev/Fwd/Back)=(0,0,0) Caps=
                     {F9F19DA5-3B09-4B2F-9D89-C64753E3EAAB}: Format(In/Out)=(S340,UNKNOWN) Frames(Prev/Fwd/Back)=(0,0,0) Caps=
                     {5A54A0C9-C7EC-4BD9-8EDE-F3C75DC4393B}: Format(In/Out)=(S340,UNKNOWN) Frames(Prev/Fwd/Back)=(0,0,0) Caps=
                     {335AA36E-7884-43A4-9C91-7F87FAF3E37E}: Format(In/Out)=(S340,UNKNOWN) Frames(Prev/Fwd/Back)=(0,0,0) Caps=
                     {6CB69578-7617-4637-91E5-1C02DB810285}: Format(In/Out)=(S342,UNKNOWN) Frames(Prev/Fwd/Back)=(0,0,0) Caps=
                     {F9F19DA5-3B09-4B2F-9D89-C64753E3EAAB}: Format(In/Out)=(S342,UNKNOWN) Frames(Prev/Fwd/Back)=(0,0,0) Caps=
                     {5A54A0C9-C7EC-4BD9-8EDE-F3C75DC4393B}: Format(In/Out)=(S342,UNKNOWN) Frames(Prev/Fwd/Back)=(0,0,0) Caps=
                     {335AA36E-7884-43A4-9C91-7F87FAF3E37E}: Format(In/Out)=(S342,UNKNOWN) Frames(Prev/Fwd/Back)=(0,0,0) Caps=
        D3D9 Overlay: Supported
             DXVA-HD: Supported
        DDraw Status: Enabled
          D3D Status: Enabled
          AGP Status: Enabled
       MPO MaxPlanes: 1
            MPO Caps: Not Supported
         MPO Stretch: Not Supported
     MPO Media Hints: Not Supported
         MPO Formats: Not Supported
    PanelFitter Caps: Not Supported
 PanelFitter Stretch: Not Supported

-------------
Sound Devices
-------------
            Description: Speakers (Realtek High Definition Audio)
 Default Sound Playback: Yes
 Default Voice Playback: Yes
            Hardware ID: HDAUDIO\FUNC_01&VEN_10EC&DEV_0255&SUBSYS_10431760&REV_1000
        Manufacturer ID: 1
             Product ID: 100
                   Type: WDM
            Driver Name: RTKVHD64.sys
         Driver Version: 6.00.0001.7960 (English)
      Driver Attributes: Final Retail
            WHQL Logo'd: Yes
          Date and Size: 10/18/2016 12:00:00 AM, 5371912 bytes
            Other Files: 
        Driver Provider: Realtek Semiconductor Corp.
         HW Accel Level: Basic
              Cap Flags: 0xF1F
    Min/Max Sample Rate: 100, 200000
Static/Strm HW Mix Bufs: 1, 0
 Static/Strm HW 3D Bufs: 0, 0
              HW Memory: 0
       Voice Management: No
 EAX(tm) 2.0 Listen/Src: No, No
   I3DL2(tm) Listen/Src: No, No
Sensaura(tm) ZoomFX(tm): No

---------------------
Sound Capture Devices
---------------------
            Description: Microphone (Realtek High Definition Audio)
  Default Sound Capture: Yes
  Default Voice Capture: Yes
            Driver Name: RTKVHD64.sys
         Driver Version: 6.00.0001.7960 (English)
      Driver Attributes: Final Retail
          Date and Size: 10/21/2016 02:24:52, 5371912 bytes
              Cap Flags: 0x1
           Format Flags: 0xFFFFF

---------------------
Video Capture Devices
Number of Devices: 1
---------------------
           FriendlyName: USB2.0 HD UVC WebCam
               Location: Front
           SymbolicLink: \\?\usb#vid_13d3&pid_5666&mi_00#6&2f2fc667&0&0000#{e5323777-f976-4f5b-9b55-b94699c46e44}\global
           Manufacturer: Microsoft
             HardwareID: USB\VID_13D3&PID_5666&REV_1029&MI_00,USB\VID_13D3&PID_5666&MI_00
             DriverDesc: USB Video Device
         DriverProvider: Microsoft
          DriverVersion: 10.0.16299.15
      DriverDateEnglish: 6/21/2006 00:00:00
    DriverDateLocalized: 6/21/2006 12:00:00 AM
                Service: usbvideo
                  Class: Camera
          DevNodeStatus: 180200A[DN_DRIVER_LOADED|DN_STARTED|DN_DISABLEABLE|DN_NT_ENUMERATOR|DN_NT_DRIVER]
            ContainerId: {00000000-0000-0000-FFFF-FFFFFFFFFFFF}
            ProblemCode: No Problem
  BusReportedDeviceDesc: USB2.0 HD UVC WebCam
                 Parent: USB\VID_13D3&PID_5666\NULL
      DriverProblemDesc: n/a
           UpperFilters: n/a
           LowerFilters: n/a
                  Stack: \FileSystem\aswSnx,\FileSystem\aswSnx,\Driver\ksthunk,\Driver\usbvideo,\Driver\AiCharger,\Driver\ACPI,\Driver\usbccgp
      ContainerCategory: n/a

-------------------
DirectInput Devices
-------------------
      Device Name: Mouse
         Attached: 1
    Controller ID: n/a
Vendor/Product ID: n/a
        FF Driver: n/a

      Device Name: Keyboard
         Attached: 1
    Controller ID: n/a
Vendor/Product ID: n/a
        FF Driver: n/a

      Device Name: ASUS Wireless Radio Control
         Attached: 1
    Controller ID: 0x0
Vendor/Product ID: n/a
        FF Driver: n/a

      Device Name: 2.4G Wireless Mouse
         Attached: 1
    Controller ID: 0x0
Vendor/Product ID: 0x3938, 0x1031
        FF Driver: n/a

      Device Name: HIDI2C Device
         Attached: 1
    Controller ID: 0x0
Vendor/Product ID: 0x04F3, 0x304A
        FF Driver: n/a

      Device Name: ASASTeK COMPUTER INC.
         Attached: 1
    Controller ID: 0x0
Vendor/Product ID: 0x0B05, 0x1837
        FF Driver: n/a

      Device Name: ASASTeK COMPUTER INC.
         Attached: 1
    Controller ID: 0x0
Vendor/Product ID: 0x0B05, 0x1837
        FF Driver: n/a

Poll w/ Interrupt: No

-----------
USB Devices
-----------
+ USB Root Hub (USB 3.0)
| Vendor/Product ID: 0x8086, 0xA12F
| Matching Device ID: USB\ROOT_HUB30
| Service: USBHUB3
| Driver: USBHUB3.SYS, 11/18/2017 09:11:41, 555416 bytes
| 
+-+ USB Input Device
| | Vendor/Product ID: 0x3938, 0x1031
| | Location: Port_#0006.Hub_#0001
| | Matching Device ID: USB\Class_03&SubClass_01
| | Service: HidUsb
| | Driver: hidusb.sys, 9/29/2017 06:41:08, 40960 bytes
| | Driver: hidclass.sys, 9/29/2017 06:41:08, 187392 bytes
| | Driver: hidparse.sys, 9/29/2017 06:41:08, 45568 bytes
| | 
| +-+ HID-compliant mouse
| | | Vendor/Product ID: 0x3938, 0x1031
| | | Matching Device ID: HID_DEVICE_SYSTEM_MOUSE
| | | Service: mouhid
| | | Driver: mouhid.sys, 9/29/2017 06:41:08, 32768 bytes
| | | Driver: mouclass.sys, 9/29/2017 06:41:08, 57240 bytes
| | 
+-+ USB Composite Device
| | Vendor/Product ID: 0x0B05, 0x1837
| | Location: Port_#0008.Hub_#0001
| | Matching Device ID: USB\COMPOSITE
| | Service: usbccgp
| | Driver: usbccgp.sys, 9/29/2017 06:41:08, 168856 bytes
| | 
| +-+ USB Input Device
| | | Vendor/Product ID: 0x0B05, 0x1837
| | | Location: 0000.0014.0000.008.000.000.000.000.000
| | | Matching Device ID: USB\Class_03&SubClass_01
| | | Service: HidUsb
| | | Driver: hidusb.sys, 9/29/2017 06:41:08, 40960 bytes
| | | Driver: hidclass.sys, 9/29/2017 06:41:08, 187392 bytes
| | | Driver: hidparse.sys, 9/29/2017 06:41:08, 45568 bytes
| | | 
| | +-+ HID Keyboard Device
| | | | Vendor/Product ID: 0x0B05, 0x1837
| | | | Matching Device ID: HID_DEVICE_SYSTEM_KEYBOARD
| | | | Service: kbdhid
| | | | Driver: kbdhid.sys, 9/29/2017 06:41:08, 40448 bytes
| | | | Driver: kbdclass.sys, 9/29/2017 06:41:08, 63384 bytes
| | | 
| +-+ USB Input Device
| | | Vendor/Product ID: 0x0B05, 0x1837
| | | Location: 0000.0014.0000.008.000.000.000.000.000
| | | Matching Device ID: USB\Class_03&SubClass_01
| | | Service: HidUsb
| | | Driver: hidusb.sys, 9/29/2017 06:41:08, 40960 bytes
| | | Driver: hidclass.sys, 9/29/2017 06:41:08, 187392 bytes
| | | Driver: hidparse.sys, 9/29/2017 06:41:08, 45568 bytes
| | | 
| | +-+ HID-compliant mouse
| | | | Vendor/Product ID: 0x0B05, 0x1837
| | | | Matching Device ID: HID_DEVICE_SYSTEM_MOUSE
| | | | Service: mouhid
| | | | Driver: mouhid.sys, 9/29/2017 06:41:08, 32768 bytes
| | | | Driver: mouclass.sys, 9/29/2017 06:41:08, 57240 bytes

----------------
Gameport Devices
----------------

------------
PS/2 Devices
------------
+ PC/AT Enhanced PS/2 Keyboard (101/102-Key)
| Matching Device ID: *PNP030B
| Service: i8042prt
| Driver: i8042prt.sys, 9/29/2017 06:41:08, 105984 bytes
| Driver: kbdclass.sys, 9/29/2017 06:41:08, 63384 bytes
| 
+ HID-compliant mouse
| Vendor/Product ID: 0x04F3, 0x0000
| Matching Device ID: HID_DEVICE_SYSTEM_MOUSE
| Service: mouhid
| Driver: mouhid.sys, 9/29/2017 06:41:08, 32768 bytes
| Driver: mouclass.sys, 9/29/2017 06:41:08, 57240 bytes

------------------------
Disk & DVD/CD-ROM Drives
------------------------
      Drive: C:
 Free Space: 20.5 GB
Total Space: 120.9 GB
File System: NTFS
      Model: HFS128G39TND-N210A

      Drive: D:
 Free Space: 245.5 GB
Total Space: 953.9 GB
File System: NTFS
      Model: ST1000LM035-1RK172

--------------
System Devices
--------------
     Name: Intel(R) Serial IO I2C Host Controller - A161
Device ID: PCI\VEN_8086&DEV_A161&SUBSYS_17601043&REV_31\3&11583659&1&A9
   Driver: C:\WINDOWS\system32\DRIVERS\iaLPSS2i_I2C.sys, 30.100.1724.0001 (English), 9/29/2017 06:40:59, 171520 bytes

     Name: Intel(R) 100 Series/C230 Series Chipset Family PCI Express Root Port #1 - A110
Device ID: PCI\VEN_8086&DEV_A110&SUBSYS_17601043&REV_F1\3&11583659&1&E0
   Driver: C:\WINDOWS\system32\DRIVERS\pci.sys, 10.00.16299.0015 (English), 9/29/2017 06:41:03, 362904 bytes

     Name: Intel(R) Management Engine Interface 
Device ID: PCI\VEN_8086&DEV_A13A&SUBSYS_17601043&REV_31\3&11583659&1&B0
   Driver: C:\WINDOWS\system32\DRIVERS\TeeDriverW8x64.sys, 11.06.0000.1032 (English), 9/23/2016 00:40:58, 204896 bytes

     Name: Intel(R) Xeon(R) E3 - 1200 v6/7th Gen Intel(R) Core(TM) Host Bridge/DRAM Registers - 5910
Device ID: PCI\VEN_8086&DEV_5910&SUBSYS_17601043&REV_05\3&11583659&1&00
   Driver: n/a

     Name: Intel(R) 100 Series/C230 Series Chipset Family PCI Express Root Port #4 - A113
Device ID: PCI\VEN_8086&DEV_A113&SUBSYS_17601043&REV_F1\3&11583659&1&E3
   Driver: C:\WINDOWS\system32\DRIVERS\pci.sys, 10.00.16299.0015 (English), 9/29/2017 06:41:03, 362904 bytes

     Name: Realtek PCIe GBE Family Controller
Device ID: PCI\VEN_10EC&DEV_8168&SUBSYS_200F1043&REV_10\4&29D2BE8&0&00E3
   Driver: C:\WINDOWS\system32\DRIVERS\rt640x64.sys, 10.10.0714.2016 (English), 8/22/2016 13:19:27, 943112 bytes
   Driver: C:\WINDOWS\system32\RtNicProp64.dll, 1.02.0000.0006 (English), 8/22/2016 13:19:27, 82544 bytes

     Name: Intel(R) 100 Series/C230 Chipset Family SATA AHCI Controller
Device ID: PCI\VEN_8086&DEV_A103&SUBSYS_17601043&REV_31\3&11583659&1&B8
   Driver: C:\WINDOWS\system32\DRIVERS\iaStorA.sys, 15.02.0001.1028 (English), 10/6/2016 19:23:04, 795664 bytes

     Name: Intel(R) 100 Series/C230 Series Chipset Family Thermal subsystem - A131
Device ID: PCI\VEN_8086&DEV_A131&SUBSYS_17601043&REV_31\3&11583659&1&A2
   Driver: n/a

     Name: Intel(R) USB 3.0 eXtensible Host Controller - 1.0 (Microsoft)
Device ID: PCI\VEN_8086&DEV_A12F&SUBSYS_201F1043&REV_31\3&11583659&1&A0
   Driver: C:\WINDOWS\system32\DRIVERS\USBXHCI.SYS, 10.00.16299.0015 (English), 9/29/2017 06:41:08, 437656 bytes

     Name: Intel(R) Dual Band Wireless-AC 8260
Device ID: PCI\VEN_8086&DEV_24F3&SUBSYS_00108086&REV_3A\4&12D21C8B&0&00E2
   Driver: C:\WINDOWS\system32\DRIVERS\Netwtw04.sys, 19.50.0001.0006 (English), 9/29/2017 06:40:59, 7689728 bytes
   Driver: C:\WINDOWS\system32\DRIVERS\Netwfw04.dat, 9/29/2017 06:40:59, 13332880 bytes

     Name: Intel(R) 100 Series/C230 Series Chipset Family SMBus - A123
Device ID: PCI\VEN_8086&DEV_A123&SUBSYS_17601043&REV_31\3&11583659&1&FC
   Driver: n/a

     Name: Intel(R) Dynamic Platform and Thermal Framework Processor Participant
Device ID: PCI\VEN_8086&DEV_1903&SUBSYS_17601043&REV_05\3&11583659&1&20
   Driver: C:\WINDOWS\system32\DRIVERS\dptf_cpu.sys, 8.02.11000.2996 (English), 10/31/2016 23:22:10, 66616 bytes
   Driver: C:\WINDOWS\system32\WdfCoInstaller01011.dll, 1.11.9200.16384 (English), 10/31/2016 23:22:12, 1804680 bytes

     Name: Intel(R) 100 Series/C230 Series Chipset Family PCI Express Root Port #5 - A114
Device ID: PCI\VEN_8086&DEV_A114&SUBSYS_17601043&REV_F1\3&11583659&1&E4
   Driver: C:\WINDOWS\system32\DRIVERS\pci.sys, 10.00.16299.0015 (English), 9/29/2017 06:41:03, 362904 bytes

     Name: High Definition Audio Controller
Device ID: PCI\VEN_8086&DEV_A171&SUBSYS_17601043&REV_31\3&11583659&1&FB
   Driver: C:\WINDOWS\system32\DRIVERS\hdaudbus.sys, 10.00.16299.0015 (English), 9/29/2017 06:40:59, 86016 bytes
   Driver: C:\WINDOWS\system32\DRIVERS\drmk.sys, 10.00.16299.0015 (English), 9/29/2017 06:40:59, 96768 bytes
   Driver: C:\WINDOWS\system32\DRIVERS\portcls.sys, 10.00.16299.0015 (English), 9/29/2017 06:40:59, 379392 bytes

     Name: Intel(R) Serial IO I2C Host Controller - A160
Device ID: PCI\VEN_8086&DEV_A160&SUBSYS_17601043&REV_31\3&11583659&1&A8
   Driver: C:\WINDOWS\system32\DRIVERS\iaLPSS2i_I2C.sys, 30.100.1724.0001 (English), 9/29/2017 06:40:59, 171520 bytes

     Name: Intel(R) 100 Series/C230 Series Chipset Family PMC - A121
Device ID: PCI\VEN_8086&DEV_A121&SUBSYS_17601043&REV_31\3&11583659&1&FA
   Driver: n/a

     Name: NVIDIA GeForce GTX 1060
Device ID: PCI\VEN_10DE&DEV_1C60&SUBSYS_17601043&REV_A1\4&197AB495&0&0008
   Driver: C:\Program Files\NVIDIA Corporation\Drs\dbInstaller.exe, 22.21.0013.8528 (English), 8/9/2017 17:34:52, 461432 bytes
   Driver: C:\Program Files\NVIDIA Corporation\Drs\nvdrsdb.bin, 8/9/2017 17:34:52, 1422464 bytes
   Driver: C:\WINDOWS\System32\DriverStore\FileRepository\nvami.inf_amd64_4388e33aefc42cce\NvContainerSetup.exe, 1.00.0007.0000 (English), 8/9/2017 17:34:52, 4187496 bytes
   Driver: C:\WINDOWS\System32\DriverStore\FileRepository\nvami.inf_amd64_4388e33aefc42cce\NvCplSetupInt.exe, 1.00.0007.0000 (English), 8/9/2017 17:34:52, 100739112 bytes
   Driver: C:\Program Files\NVIDIA Corporation\license.txt, 8/9/2017 17:34:52, 27203 bytes
   Driver: C:\Program Files\NVIDIA Corporation\NVSMI\MCU.exe, 1.01.5204.20580 (English), 8/9/2017 17:34:52, 848504 bytes
   Driver: C:\Program Files\NVIDIA Corporation\NVSMI\nvdebugdump.exe, 6.14.0013.8528 (English), 8/9/2017 17:34:52, 415352 bytes
   Driver: C:\Program Files\NVIDIA Corporation\NVSMI\nvidia-smi.1.pdf, 8/9/2017 17:34:52, 77145 bytes
   Driver: C:\Program Files\NVIDIA Corporation\NVSMI\nvidia-smi.exe, 8.17.0013.8528 (English), 8/9/2017 17:34:52, 501696 bytes
   Driver: C:\Program Files\NVIDIA Corporation\NVSMI\nvml.dll, 8.17.0013.8528 (English), 8/9/2017 17:34:52, 904128 bytes
   Driver: C:\Program Files\NVIDIA Corporation\OpenCL\OpenCL.dll, 2.00.0004.0000 (English), 8/9/2017 17:34:52, 418752 bytes
   Driver: C:\Program Files\NVIDIA Corporation\OpenCL\OpenCL64.dll, 2.00.0004.0000 (English), 8/9/2017 17:34:52, 513144 bytes
   Driver: C:\WINDOWS\System32\DriverStore\FileRepository\nvami.inf_amd64_4388e33aefc42cce\nvlddmkm.sys, 22.21.0013.8528 (English), 8/10/2017 12:46:48, 15610296 bytes
   Driver: C:\WINDOWS\System32\DriverStore\FileRepository\nvami.inf_amd64_4388e33aefc42cce\nvpciflt.sys, 22.21.0013.8528 (English), 8/10/2017 12:47:04, 47032 bytes
   Driver: C:\WINDOWS\System32\DriverStore\FileRepository\nvami.inf_amd64_4388e33aefc42cce\nvd3dumx.dll, 22.21.0013.8528 (English), 8/9/2017 17:34:52, 18275080 bytes
   Driver: C:\WINDOWS\System32\DriverStore\FileRepository\nvami.inf_amd64_4388e33aefc42cce\nvd3dumx_cfg.dll, 22.21.0013.8528 (English), 8/9/2017 17:34:52, 18644504 bytes
   Driver: C:\WINDOWS\System32\DriverStore\FileRepository\nvami.inf_amd64_4388e33aefc42cce\nvldumdx.dll, 22.21.0013.8528 (English), 8/9/2017 17:34:52, 893272 bytes
   Driver: C:\WINDOWS\System32\DriverStore\FileRepository\nvami.inf_amd64_4388e33aefc42cce\nvwgf2umx.dll, 22.21.0013.8528 (English), 8/9/2017 17:34:52, 26401280 bytes
   Driver: C:\WINDOWS\System32\DriverStore\FileRepository\nvami.inf_amd64_4388e33aefc42cce\nvwgf2umx_cfg.dll, 22.21.0013.8528 (English), 8/9/2017 17:34:52, 27142040 bytes
   Driver: C:\WINDOWS\system32\NvFBC64.dll, 6.14.0013.8528 (English), 8/9/2017 17:34:52, 1067968 bytes
   Driver: C:\WINDOWS\system32\NvIFR64.dll, 6.14.0013.8528 (English), 8/9/2017 17:34:52, 972736 bytes
   Driver: C:\WINDOWS\system32\NvIFROpenGL.dll, 22.21.0013.8528 (English), 8/9/2017 17:34:52, 609912 bytes
   Driver: C:\WINDOWS\system32\nv-vk64.json, 8/9/2017 17:34:52, 669 bytes
   Driver: C:\WINDOWS\system32\nvDecMFTMjpeg.dll, 22.21.0013.8528 (English), 8/9/2017 17:34:52, 724928 bytes
   Driver: C:\WINDOWS\system32\nvEncMFTH264.dll, 22.21.0013.8528 (English), 8/9/2017 17:34:52, 1278712 bytes
   Driver: C:\WINDOWS\system32\nvEncMFThevc.dll, 22.21.0013.8528 (English), 8/9/2017 17:34:52, 1276992 bytes
   Driver: C:\WINDOWS\system32\nvEncodeAPI64.dll, 22.21.0013.8528 (English), 8/9/2017 17:34:52, 781728 bytes
   Driver: C:\WINDOWS\system32\nvapi64.dll, 22.21.0013.8528 (English), 8/9/2017 17:34:52, 4209520 bytes
   Driver: C:\WINDOWS\system32\nvcompiler.dll, 22.21.0013.8528 (English), 8/9/2017 17:34:52, 40239552 bytes
   Driver: C:\WINDOWS\system32\nvcuda.dll, 6.14.0013.8528 (English), 8/9/2017 17:34:52, 13649808 bytes
   Driver: C:\WINDOWS\system32\nvcuvid.dll, 7.17.0013.8528 (English), 8/9/2017 17:34:52, 4164032 bytes
   Driver: C:\WINDOWS\system32\nvfatbinaryLoader.dll, 22.21.0013.8528 (English), 8/9/2017 17:34:52, 689808 bytes
   Driver: C:\WINDOWS\system32\nvinfo.pb, 8/9/2017 17:34:52, 46463 bytes
   Driver: C:\WINDOWS\system32\nvmcumd.dll, 22.21.0013.8528 (English), 8/9/2017 17:34:52, 618928 bytes
   Driver: C:\WINDOWS\system32\nvoglv64.dll, 22.21.0013.8528 (English), 8/9/2017 17:34:52, 35846080 bytes
   Driver: C:\WINDOWS\system32\nvopencl.dll, 6.14.0013.8528 (English), 8/9/2017 17:34:52, 23074832 bytes
   Driver: C:\WINDOWS\system32\nvptxJitCompiler.dll, 22.21.0013.8528 (English), 8/9/2017 17:34:52, 12133296 bytes
   Driver: C:\WINDOWS\System32\DriverStore\FileRepository\nvami.inf_amd64_4388e33aefc42cce\nvd3dum.dll, 22.21.0013.8528 (English), 8/9/2017 17:34:52, 14979592 bytes
   Driver: C:\WINDOWS\System32\DriverStore\FileRepository\nvami.inf_amd64_4388e33aefc42cce\nvd3dum_cfg.dll, 22.21.0013.8528 (English), 8/9/2017 17:34:52, 15283960 bytes
   Driver: C:\WINDOWS\System32\DriverStore\FileRepository\nvami.inf_amd64_4388e33aefc42cce\nvldumd.dll, 22.21.0013.8528 (English), 8/9/2017 17:34:52, 735360 bytes
   Driver: C:\WINDOWS\System32\DriverStore\FileRepository\nvami.inf_amd64_4388e33aefc42cce\nvwgf2um.dll, 22.21.0013.8528 (English), 8/9/2017 17:34:52, 22366448 bytes
   Driver: C:\WINDOWS\System32\DriverStore\FileRepository\nvami.inf_amd64_4388e33aefc42cce\nvwgf2um_cfg.dll, 22.21.0013.8528 (English), 8/9/2017 17:34:52, 23215680 bytes
   Driver: C:\WINDOWS\SysWow64\NvFBC.dll, 6.14.0013.8528 (English), 8/9/2017 17:34:52, 1005176 bytes
   Driver: C:\WINDOWS\SysWow64\NvIFR.dll, 6.14.0013.8528 (English), 8/9/2017 17:34:52, 924096 bytes
   Driver: C:\WINDOWS\SysWow64\NvIFROpenGL.dll, 22.21.0013.8528 (English), 8/9/2017 17:34:52, 499136 bytes
   Driver: C:\WINDOWS\SysWow64\nv-vk32.json, 8/9/2017 17:34:52, 669 bytes
   Driver: C:\WINDOWS\SysWow64\nvDecMFTMjpeg.dll, 22.21.0013.8528 (English), 8/9/2017 17:34:52, 584128 bytes
   Driver: C:\WINDOWS\SysWow64\nvEncMFTH264.dll, 22.21.0013.8528 (English), 8/9/2017 17:34:52, 996760 bytes
   Driver: C:\WINDOWS\SysWow64\nvEncMFThevc.dll, 22.21.0013.8528 (English), 8/9/2017 17:34:52, 995408 bytes
   Driver: C:\WINDOWS\SysWow64\nvEncodeAPI.dll, 22.21.0013.8528 (English), 8/9/2017 17:34:52, 617416 bytes
   Driver: C:\WINDOWS\SysWow64\nvapi.dll, 22.21.0013.8528 (English), 8/9/2017 17:34:52, 3711328 bytes
   Driver: C:\WINDOWS\SysWow64\nvcompiler.dll, 22.21.0013.8528 (English), 8/9/2017 17:34:52, 35314296 bytes
   Driver: C:\WINDOWS\SysWow64\nvcuda.dll, 6.14.0013.8528 (English), 8/9/2017 17:34:52, 11585736 bytes
   Driver: C:\WINDOWS\SysWow64\nvcuvid.dll, 7.17.0013.8528 (English), 8/9/2017 17:34:52, 3596224 bytes
   Driver: C:\WINDOWS\SysWow64\nvfatbinaryLoader.dll, 22.21.0013.8528 (English), 8/9/2017 17:34:52, 578056 bytes
   Driver: C:\WINDOWS\SysWow64\nvoglv32.dll, 22.21.0013.8528 (English), 8/9/2017 17:34:52, 28961912 bytes
   Driver: C:\WINDOWS\SysWow64\nvopencl.dll, 6.14.0013.8528 (English), 8/9/2017 17:34:52, 18805160 bytes
   Driver: C:\WINDOWS\SysWow64\nvptxJitCompiler.dll, 22.21.0013.8528 (English), 8/9/2017 17:34:52, 9982968 bytes
   Driver: C:\WINDOWS\System32\DriverStore\FileRepository\nvami.inf_amd64_4388e33aefc42cce\VulkanRT-Installer.exe, 1.00.0042.0001 (English), 8/9/2017 17:34:52, 775488 bytes
   Driver: C:\WINDOWS\system32\nvdispco6438528.dll, 2.00.0048.0004 (English), 8/9/2017 17:34:52, 1988216 bytes
   Driver: C:\WINDOWS\system32\nvdispgenco6438528.dll, 2.00.0024.0002 (English), 8/9/2017 17:34:52, 1598072 bytes

     Name: Intel(R) 100 Series/C230 Series Chipset Family LPC Controller (HM175) - A152
Device ID: PCI\VEN_8086&DEV_A152&SUBSYS_17601043&REV_31\3&11583659&1&F8
   Driver: C:\WINDOWS\system32\DRIVERS\msisadrv.sys, 10.00.16299.0015 (English), 9/29/2017 06:41:03, 18840 bytes

     Name: Intel(R) Xeon(R) E3 - 1200/1500 v5/6th Gen Intel(R) Core(TM) PCIe Controller (x16) - 1901
Device ID: PCI\VEN_8086&DEV_1901&SUBSYS_17601043&REV_05\3&11583659&1&08
   Driver: C:\WINDOWS\system32\DRIVERS\pci.sys, 10.00.16299.0015 (English), 9/29/2017 06:41:03, 362904 bytes

     Name: Intel(R) 100 Series/C230 Series Chipset Family PCI Express Root Port #3 - A112
Device ID: PCI\VEN_8086&DEV_A112&SUBSYS_17601043&REV_F1\3&11583659&1&E2
   Driver: C:\WINDOWS\system32\DRIVERS\pci.sys, 10.00.16299.0015 (English), 9/29/2017 06:41:03, 362904 bytes

------------------
DirectShow Filters
------------------

DirectShow Filters:
WMAudio Decoder DMO,0x00800800,1,1,WMADMOD.DLL,10.00.16299.0015
WMAPro over S/PDIF DMO,0x00600800,1,1,WMADMOD.DLL,10.00.16299.0015
WMSpeech Decoder DMO,0x00600800,1,1,WMSPDMOD.DLL,10.00.16299.0015
MP3 Decoder DMO,0x00600800,1,1,mp3dmod.dll,10.00.16299.0015
Mpeg4s Decoder DMO,0x00800001,1,1,mp4sdecd.dll,10.00.16299.0015
WMV Screen decoder DMO,0x00600800,1,1,wmvsdecd.dll,10.00.16299.0015
WMVideo Decoder DMO,0x00800001,1,1,wmvdecod.dll,10.00.16299.0015
Mpeg43 Decoder DMO,0x00800001,1,1,mp43decd.dll,10.00.16299.0015
Mpeg4 Decoder DMO,0x00800001,1,1,mpg4decd.dll,10.00.16299.0015
DV Muxer,0x00400000,0,0,qdv.dll,10.00.16299.0015
Color Space Converter,0x00400001,1,1,quartz.dll,10.00.16299.0015
WM ASF Reader,0x00400000,0,0,qasf.dll,12.00.16299.0015
AVI Splitter,0x00600000,1,1,quartz.dll,10.00.16299.0015
VGA 16 Color Ditherer,0x00400000,1,1,quartz.dll,10.00.16299.0015
SBE2MediaTypeProfile,0x00200000,0,0,sbe.dll,10.00.16299.0015
Microsoft DTV-DVD Video Decoder,0x005fffff,2,4,msmpeg2vdec.dll,10.00.16299.0015
AC3 Parser Filter,0x00600000,1,1,mpg2splt.ax,10.00.16299.0015
StreamBufferSink,0x00200000,0,0,sbe.dll,10.00.16299.0015
MJPEG Decompressor,0x00600000,1,1,quartz.dll,10.00.16299.0015
MPEG-I Stream Splitter,0x00600000,1,2,quartz.dll,10.00.16299.0015
SAMI (CC) Parser,0x00400000,1,1,quartz.dll,10.00.16299.0015
VBI Codec,0x00600000,1,4,VBICodec.ax,10.00.16299.0015
MPEG-2 Splitter,0x005fffff,1,0,mpg2splt.ax,10.00.16299.0015
Closed Captions Analysis Filter,0x00200000,2,5,cca.dll,10.00.16299.0015
SBE2FileScan,0x00200000,0,0,sbe.dll,10.00.16299.0015
Microsoft MPEG-2 Video Encoder,0x00200000,1,1,msmpeg2enc.dll,10.00.16299.0015
Internal Script Command Renderer,0x00800001,1,0,quartz.dll,10.00.16299.0015
MPEG Audio Decoder,0x03680001,1,1,quartz.dll,10.00.16299.0015
DV Splitter,0x00600000,1,2,qdv.dll,10.00.16299.0015
Video Mixing Renderer 9,0x00200000,1,0,quartz.dll,10.00.16299.0015
Microsoft MPEG-2 Encoder,0x00200000,2,1,msmpeg2enc.dll,10.00.16299.0015
ACM Wrapper,0x00600000,1,1,quartz.dll,10.00.16299.0015
Video Renderer,0x00800001,1,0,quartz.dll,10.00.16299.0015
MPEG-2 Video Stream Analyzer,0x00200000,0,0,sbe.dll,10.00.16299.0015
Line 21 Decoder,0x00600000,1,1,,
Video Port Manager,0x00600000,2,1,quartz.dll,10.00.16299.0015
Video Renderer,0x00400000,1,0,quartz.dll,10.00.16299.0015
VPS Decoder,0x00200000,0,0,WSTPager.ax,10.00.16299.0015
WM ASF Writer,0x00400000,0,0,qasf.dll,12.00.16299.0015
VBI Surface Allocator,0x00600000,1,1,vbisurf.ax,
File writer,0x00200000,1,0,qcap.dll,10.00.16299.0015
DVD Navigator,0x00200000,0,3,qdvd.dll,10.00.16299.0015
Overlay Mixer2,0x00200000,1,1,,
AVI Draw,0x00600064,9,1,quartz.dll,10.00.16299.0015
Microsoft MPEG-2 Audio Encoder,0x00200000,1,1,msmpeg2enc.dll,10.00.16299.0015
WST Pager,0x00200000,1,1,WSTPager.ax,10.00.16299.0015
MPEG-2 Demultiplexer,0x00600000,1,1,mpg2splt.ax,10.00.16299.0015
DV Video Decoder,0x00800000,1,1,qdv.dll,10.00.16299.0015
SampleGrabber,0x00200000,1,1,qedit.dll,10.00.16299.0015
Null Renderer,0x00200000,1,0,qedit.dll,10.00.16299.0015
MPEG-2 Sections and Tables,0x005fffff,1,0,Mpeg2Data.ax,10.00.16299.0015
Microsoft AC3 Encoder,0x00200000,1,1,msac3enc.dll,10.00.16299.0015
StreamBufferSource,0x00200000,0,0,sbe.dll,10.00.16299.0015
Smart Tee,0x00200000,1,2,qcap.dll,10.00.16299.0015
Overlay Mixer,0x00200000,0,0,,
AVI Decompressor,0x00600000,1,1,quartz.dll,10.00.16299.0015
AVI/WAV File Source,0x00400000,0,2,quartz.dll,10.00.16299.0015
Wave Parser,0x00400000,1,1,quartz.dll,10.00.16299.0015
MIDI Parser,0x00400000,1,1,quartz.dll,10.00.16299.0015
Multi-file Parser,0x00400000,1,1,quartz.dll,10.00.16299.0015
File stream renderer,0x00400000,1,1,quartz.dll,10.00.16299.0015
Microsoft DTV-DVD Audio Decoder,0x005fffff,1,1,msmpeg2adec.dll,10.00.16299.0015
StreamBufferSink2,0x00200000,0,0,sbe.dll,10.00.16299.0015
AVI Mux,0x00200000,1,0,qcap.dll,10.00.16299.0015
Line 21 Decoder 2,0x00600002,1,1,quartz.dll,10.00.16299.0015
File Source (Async.),0x00400000,0,1,quartz.dll,10.00.16299.0015
File Source (URL),0x00400000,0,1,quartz.dll,10.00.16299.0015
Infinite Pin Tee Filter,0x00200000,1,1,qcap.dll,10.00.16299.0015
Enhanced Video Renderer,0x00200000,1,0,evr.dll,10.00.16299.0015
BDA MPEG2 Transport Information Filter,0x00200000,2,0,psisrndr.ax,10.00.16299.0015
MPEG Video Decoder,0x40000001,1,1,quartz.dll,10.00.16299.0015

WDM Streaming Tee/Splitter Devices:
Tee/Sink-to-Sink Converter,0x00200000,1,1,ksproxy.ax,10.00.16299.0015

Video Compressors:
WMVideo8 Encoder DMO,0x00600800,1,1,wmvxencd.dll,10.00.16299.0015
WMVideo9 Encoder DMO,0x00600800,1,1,wmvencod.dll,10.00.16299.0015
MSScreen 9 encoder DMO,0x00600800,1,1,wmvsencd.dll,10.00.16299.0015
DV Video Encoder,0x00200000,0,0,qdv.dll,10.00.16299.0015
MJPEG Compressor,0x00200000,0,0,quartz.dll,10.00.16299.0015

Audio Compressors:
WM Speech Encoder DMO,0x00600800,1,1,WMSPDMOE.DLL,10.00.16299.0015
WMAudio Encoder DMO,0x00600800,1,1,WMADMOE.DLL,10.00.16299.0015
IMA ADPCM,0x00200000,1,1,quartz.dll,10.00.16299.0015
PCM,0x00200000,1,1,quartz.dll,10.00.16299.0015
Microsoft ADPCM,0x00200000,1,1,quartz.dll,10.00.16299.0015
GSM 6.10,0x00200000,1,1,quartz.dll,10.00.16299.0015
CCITT A-Law,0x00200000,1,1,quartz.dll,10.00.16299.0015
CCITT u-Law,0x00200000,1,1,quartz.dll,10.00.16299.0015
MPEG Layer-3,0x00200000,1,1,quartz.dll,10.00.16299.0015

Audio Capture Sources:
Microphone (Realtek High Definition Audio),0x00200000,0,0,qcap.dll,10.00.16299.0015

PBDA CP Filters:
PBDA DTFilter,0x00600000,1,1,CPFilters.dll,10.00.16299.0015
PBDA ETFilter,0x00200000,0,0,CPFilters.dll,10.00.16299.0015
PBDA PTFilter,0x00200000,0,0,CPFilters.dll,10.00.16299.0015

Midi Renderers:
Default MidiOut Device,0x00800000,1,0,quartz.dll,10.00.16299.0015
Microsoft GS Wavetable Synth,0x00200000,1,0,quartz.dll,10.00.16299.0015

WDM Streaming Capture Devices:
{17CCA71B-ECD7-11D0-B908-00A0C9223196},0x00200000,2,2,ksproxy.ax,10.00.16299.0015
Realtek HD Audio Mic input,0x00200000,1,1,ksproxy.ax,10.00.16299.0015
Realtek HD Audio Stereo input,0x00200000,1,1,ksproxy.ax,10.00.16299.0015
USB2.0 HD UVC WebCam,0x00200000,1,2,ksproxy.ax,10.00.16299.0015

WDM Streaming Rendering Devices:
{17CCA71B-ECD7-11D0-B908-00A0C9223196},0x00200000,1,1,ksproxy.ax,10.00.16299.0015
Realtek HD Audio output,0x00200000,1,1,ksproxy.ax,10.00.16299.0015
{17CCA71B-ECD7-11D0-B908-00A0C9223196},0x00200000,2,2,ksproxy.ax,10.00.16299.0015

BDA Network Providers:
Microsoft ATSC Network Provider,0x00200000,0,1,MSDvbNP.ax,10.00.16299.0015
Microsoft DVBC Network Provider,0x00200000,0,1,MSDvbNP.ax,10.00.16299.0015
Microsoft DVBS Network Provider,0x00200000,0,1,MSDvbNP.ax,10.00.16299.0015
Microsoft DVBT Network Provider,0x00200000,0,1,MSDvbNP.ax,10.00.16299.0015
Microsoft Network Provider,0x00200000,0,1,MSNP.ax,10.00.16299.0015

Video Capture Sources:
USB2.0 HD UVC WebCam,0x00200000,1,2,ksproxy.ax,10.00.16299.0015

Multi-Instance Capable VBI Codecs:
VBI Codec,0x00600000,1,4,VBICodec.ax,10.00.16299.0015

BDA Transport Information Renderers:
BDA MPEG2 Transport Information Filter,0x00600000,2,0,psisrndr.ax,10.00.16299.0015
MPEG-2 Sections and Tables,0x00600000,1,0,Mpeg2Data.ax,10.00.16299.0015

BDA CP/CA Filters:
Decrypt/Tag,0x00600000,1,1,EncDec.dll,10.00.16299.0015
Encrypt/Tag,0x00200000,0,0,EncDec.dll,10.00.16299.0015
PTFilter,0x00200000,0,0,EncDec.dll,10.00.16299.0015
XDS Codec,0x00200000,0,0,EncDec.dll,10.00.16299.0015

WDM Streaming Communication Transforms:
Tee/Sink-to-Sink Converter,0x00200000,1,1,ksproxy.ax,10.00.16299.0015

Audio Renderers:
Speakers (Realtek High Definition Audio),0x00200000,1,0,quartz.dll,10.00.16299.0015
Default DirectSound Device,0x00800000,1,0,quartz.dll,10.00.16299.0015
Default WaveOut Device,0x00200000,1,0,quartz.dll,10.00.16299.0015
DirectSound: Speakers (Realtek High Definition Audio),0x00200000,1,0,quartz.dll,10.00.16299.0015


----------------------------
Preferred DirectShow Filters
----------------------------

[HKEY_LOCAL_MACHINE\Software\Microsoft\DirectShow\Preferred]

<media subtype GUID>, [<filter friendly name>, ]<filter CLSID>

MEDIASUBTYPE_MPEG1Payload, MPEG Video Decoder, CLSID_CMpegVideoCodec
MEDIASUBTYPE_MPEG1Packet, MPEG Video Decoder, CLSID_CMpegVideoCodec
MEDIASUBTYPE_DVD_LPCM_AUDIO, Microsoft DTV-DVD Audio Decoder, CLSID_CMPEG2AudDecoderDS
MEDIASUBTYPE_MPEG2_AUDIO, Microsoft DTV-DVD Audio Decoder, CLSID_CMPEG2AudDecoderDS
MEDIASUBTYPE_MPEG2_VIDEO, Microsoft DTV-DVD Video Decoder, CLSID_CMPEG2VidDecoderDS
{78766964-0000-0010-8000-00AA00389B71}, Mpeg4s Decoder DMO, CLSID_CMpeg4sDecMediaObject
{7634706D-0000-0010-8000-00AA00389B71}, Mpeg4s Decoder DMO, CLSID_CMpeg4sDecMediaObject
MEDIASUBTYPE_mp4s, Mpeg4s Decoder DMO, CLSID_CMpeg4sDecMediaObject
{6C737664-0000-0010-8000-00AA00389B71}, DV Video Decoder, CLSID_DVVideoCodec
{64737664-0000-0010-8000-00AA00389B71}, DV Video Decoder, CLSID_DVVideoCodec
{64697678-0000-0010-8000-00AA00389B71}, Mpeg4s Decoder DMO, CLSID_CMpeg4sDecMediaObject
{64687664-0000-0010-8000-00AA00389B71}, DV Video Decoder, CLSID_DVVideoCodec
{58564944-0000-0010-8000-00AA00389B71}, Mpeg4s Decoder DMO, CLSID_CMpeg4sDecMediaObject
{5634504D-0000-0010-8000-00AA00389B71}, Mpeg4s Decoder DMO, CLSID_CMpeg4sDecMediaObject
MEDIASUBTYPE_MP4S, Mpeg4s Decoder DMO, CLSID_CMpeg4sDecMediaObject
MEDIASUBTYPE_WMVR, WMVideo Decoder DMO, CLSID_CWMVDecMediaObject
MEDIASUBTYPE_WMVP, WMVideo Decoder DMO, CLSID_CWMVDecMediaObject
MEDIASUBTYPE_MJPG, MJPEG Decompressor, CLSID_MjpegDec
{44495658-0000-0010-8000-00AA00389B71}, Mpeg4s Decoder DMO, CLSID_CMpeg4sDecMediaObject
MEDIASUBTYPE_WMVA, WMVideo Decoder DMO, CLSID_CWMVDecMediaObject
MEDIASUBTYPE_mpg4, Mpeg4 Decoder DMO, CLSID_CMpeg4DecMediaObject
MEDIASUBTYPE_MPG4, Mpeg4 Decoder DMO, CLSID_CMpeg4DecMediaObject
MEDIASUBTYPE_h264, Microsoft DTV-DVD Video Decoder, CLSID_CMPEG2VidDecoderDS
MEDIASUBTYPE_H264, Microsoft DTV-DVD Video Decoder, CLSID_CMPEG2VidDecoderDS
MEDIASUBTYPE_WMV3, WMVideo Decoder DMO, CLSID_CWMVDecMediaObject
MEDIASUBTYPE_mp43, Mpeg43 Decoder DMO, CLSID_CMpeg43DecMediaObject
MEDIASUBTYPE_MP43, Mpeg43 Decoder DMO, CLSID_CMpeg43DecMediaObject
MEDIASUBTYPE_m4s2, Mpeg4s Decoder DMO, CLSID_CMpeg4sDecMediaObject
MEDIASUBTYPE_WMV2, WMVideo Decoder DMO, CLSID_CWMVDecMediaObject
MEDIASUBTYPE_MSS2, WMV Screen decoder DMO, CLSID_CMSSCDecMediaObject
MEDIASUBTYPE_M4S2, Mpeg4s Decoder DMO, CLSID_CMpeg4sDecMediaObject
MEDIASUBTYPE_WVP2, WMVideo Decoder DMO, CLSID_CWMVDecMediaObject
MEDIASUBTYPE_mp42, Mpeg4 Decoder DMO, CLSID_CMpeg4DecMediaObject
MEDIASUBTYPE_MP42, Mpeg4 Decoder DMO, CLSID_CMpeg4DecMediaObject
MEDIASUBTYPE_WMV1, WMVideo Decoder DMO, CLSID_CWMVDecMediaObject
MEDIASUBTYPE_MSS1, WMV Screen decoder DMO, CLSID_CMSSCDecMediaObject
MEDIASUBTYPE_WVC1, WMVideo Decoder DMO, CLSID_CWMVDecMediaObject
MEDIASUBTYPE_AVC1, Microsoft DTV-DVD Video Decoder, CLSID_CMPEG2VidDecoderDS
{20637664-0000-0010-8000-00AA00389B71}, DV Video Decoder, CLSID_DVVideoCodec
MEDIASUBTYPE_MPEG_LOAS, Microsoft DTV-DVD Audio Decoder, CLSID_CMPEG2AudDecoderDS
MEDIASUBTYPE_MPEG_ADTS_AAC, Microsoft DTV-DVD Audio Decoder, CLSID_CMPEG2AudDecoderDS
MEDIASUBTYPE_WMAUDIO_LOSSLESS, WMAudio Decoder DMO, CLSID_CWMADecMediaObject
MEDIASUBTYPE_WMAUDIO3, WMAudio Decoder DMO, CLSID_CWMADecMediaObject
WMMEDIASUBTYPE_WMAudioV8, WMAudio Decoder DMO, CLSID_CWMADecMediaObject
MEDIASUBTYPE_MSAUDIO1, WMAudio Decoder DMO, CLSID_CWMADecMediaObject
MEDIASUBTYPE_RAW_AAC1, Microsoft DTV-DVD Audio Decoder, CLSID_CMPEG2AudDecoderDS
WMMEDIASUBTYPE_MP3, MP3 Decoder DMO, CLSID_CMP3DecMediaObject
MEDIASUBTYPE_MPEG1AudioPayload, MPEG Audio Decoder, CLSID_CMpegAudioCodec
WMMEDIASUBTYPE_WMSP2, WMSpeech Decoder DMO, CLSID_CWMSPDecMediaObject
WMMEDIASUBTYPE_WMSP1, WMSpeech Decoder DMO, CLSID_CWMSPDecMediaObject


---------------------------
Media Foundation Transforms
---------------------------

[HKEY_LOCAL_MACHINE\Software\Classes\MediaFoundation\Transforms]

<category>:
  <transform friendly name>, <transform CLSID>, <flags>, [<merit>, ]<file name>, <file version>

Video Decoders:
  NVIDIA MJPEG Video Decoder MFT, {70F36578-2741-454F-B494-E8563DDD1CB4}, 0x4, 8, nvDecMFTMjpeg.dll, 22.21.0013.8528
  Microsoft MPEG Video Decoder MFT, {2D709E52-123F-49B5-9CBC-9AF5CDE28FB9}, 0x1, msmpeg2vdec.dll, 10.00.16299.0015
  DV Decoder MFT, {404A6DE5-D4D6-4260-9BC7-5A6CBD882432}, 0x1, mfdvdec.dll, 10.00.16299.0015
  Mpeg4s Decoder MFT, CLSID_CMpeg4sDecMFT, 0x1, mp4sdecd.dll, 10.00.16299.0015
  Microsoft H264 Video Decoder MFT, CLSID_CMSH264DecoderMFT, 0x1, msmpeg2vdec.dll, 10.00.16299.0015
  WMV Screen decoder MFT, CLSID_CMSSCDecMediaObject, 0x1, wmvsdecd.dll, 10.00.16299.0015
  WMVideo Decoder MFT, CLSID_CWMVDecMediaObject, 0x1, wmvdecod.dll, 10.00.16299.0015
  MJPEG Decoder MFT, {CB17E772-E1CC-4633-8450-5617AF577905}, 0x1, mfmjpegdec.dll, 10.00.16299.0015
  Mpeg43 Decoder MFT, CLSID_CMpeg43DecMediaObject, 0x1, mp43decd.dll, 10.00.16299.0015
  Microsoft WebM MF VP8 Decoder Transform, {E3AAF548-C9A4-4C6E-234D-5ADA374B0000}, 0x1, MSVP9DEC.dll, 10.00.16299.0015
  Mpeg4 Decoder MFT, CLSID_CMpeg4DecMediaObject, 0x1, mpg4decd.dll, 10.00.16299.0015
  HEVCVideoExtension
Video Encoders:
  NVIDIA H.264 Encoder MFT, {60F44560-5A20-4857-BFEF-D29773CB8040}, 0x4, 8, nvEncMFTH264.dll, 22.21.0013.8528
  NVIDIA HEVC Encoder MFT, {966F107C-8EA2-425D-B822-E4A71BEF01D7}, 0x4, 8, nvEncMFThevc.dll, 22.21.0013.8528
  H264 Encoder MFT, {6CA50344-051A-4DED-9779-A43305165E35}, 0x1, mfh264enc.dll, 10.00.16299.0015
  WMVideo8 Encoder MFT, CLSID_CWMVXEncMediaObject, 0x1, wmvxencd.dll, 10.00.16299.0015
  Microsoft MF VPX Encoder Transform, {AEB6C755-2546-4881-82CC-E15AE5EBFF3D}, 0x1, MSVPXENC.dll, 10.00.16299.0015
  H263 Encoder MFT, {BC47FCFE-98A0-4F27-BB07-698AF24F2B38}, 0x1, mfh263enc.dll, 10.00.16299.0015
  WMVideo9 Encoder MFT, CLSID_CWMV9EncMediaObject, 0x1, wmvencod.dll, 10.00.16299.0015
  Microsoft MPEG-2 Video Encoder MFT, {E6335F02-80B7-4DC4-ADFA-DFE7210D20D5}, 0x2, msmpeg2enc.dll, 10.00.16299.0015
  HEVCVideoExtensionEncoder
Video Effects:
  Frame Rate Converter, CLSID_CFrameRateConvertDmo, 0x1, mfvdsp.dll, 10.00.16299.0015
  Resizer MFT, CLSID_CResizerDMO, 0x1, vidreszr.dll, 10.00.16299.0015
  VideoStabilization MFT, {51571744-7FE4-4FF2-A498-2DC34FF74F1B}, 0x1, MSVideoDSP.dll, 10.00.16299.0015
  Color Control, CLSID_CColorControlDmo, 0x1, mfvdsp.dll, 10.00.16299.0015
  Color Converter MFT, CLSID_CColorConvertDMO, 0x1, colorcnv.dll, 10.00.16299.0015
Video Processor:
  Microsoft Video Processor MFT, {88753B26-5B24-49BD-B2E7-0C445C78C982}, 0x1, msvproc.dll, 10.00.16299.0015
Audio Decoders:
  Microsoft Dolby Digital Plus Decoder MFT, {177C0AFE-900B-48D4-9E4C-57ADD250B3D4}, 0x1, DolbyDecMFT.dll, 10.00.16299.0015
  MS AMRNB Decoder MFT, {265011AE-5481-4F77-A295-ABB6FFE8D63E}, 0x1, MSAMRNBDecoder.dll, 10.00.16299.0015
  WMAudio Decoder MFT, CLSID_CWMADecMediaObject, 0x1, WMADMOD.DLL, 10.00.16299.0015
  Microsoft AAC Audio Decoder MFT, CLSID_CMSAACDecMFT, 0x1, MSAudDecMFT.dll, 10.00.16299.0015
  A-law Wrapper MFT, {36CB6E0C-78C1-42B2-9943-846262F31786}, 0x1, mfcore.dll, 10.00.16299.0064
  GSM ACM Wrapper MFT, {4A76B469-7B66-4DD4-BA2D-DDF244C766DC}, 0x1, mfcore.dll, 10.00.16299.0064
  WMAPro over S/PDIF MFT, CLSID_CWMAudioSpdTxDMO, 0x1, WMADMOD.DLL, 10.00.16299.0015
  Microsoft Opus Audio Decoder MFT, {63E17C10-2D43-4C42-8FE3-8D8B63E46A6A}, 0x1, MSOpusDecoder.dll, 10.00.16299.0015
  Microsoft FLAC Audio Decoder MFT, {6B0B3E6B-A2C5-4514-8055-AFE8A95242D9}, 0x1, MSFlacDecoder.dll, 10.00.16299.0015
  Microsoft MPEG Audio Decoder MFT, {70707B39-B2CA-4015-ABEA-F8447D22D88B}, 0x1, MSAudDecMFT.dll, 10.00.16299.0015
  WMSpeech Decoder DMO, CLSID_CWMSPDecMediaObject, 0x1, WMSPDMOD.DLL, 10.00.16299.0015
  G711 Wrapper MFT, {92B66080-5E2D-449E-90C4-C41F268E5514}, 0x1, mfcore.dll, 10.00.16299.0064
  IMA ADPCM ACM Wrapper MFT, {A16E1BFF-A80D-48AD-AECD-A35C005685FE}, 0x1, mfcore.dll, 10.00.16299.0064
  MP3 Decoder MFT, CLSID_CMP3DecMediaObject, 0x1, mp3dmod.dll, 10.00.16299.0015
  Microsoft ALAC Audio Decoder MFT, {C0CD7D12-31FC-4BBC-B363-7322EE3E1879}, 0x1, MSAlacDecoder.dll, 10.00.16299.0015
  ADPCM ACM Wrapper MFT, {CA34FE0A-5722-43AD-AF23-05F7650257DD}, 0x1, mfcore.dll, 10.00.16299.0064
  Dolby TrueHD IEC-61937 converter MFT, {CF5EEEDF-0E92-4B3B-A161-BD0FFE545E4B}, 0x1, mfaudiocnv.dll, 10.00.16299.0015
  DTS IEC-61937 converter MFT, {D035E24C-C877-42D7-A795-2A8A339B472F}, 0x1, mfaudiocnv.dll, 10.00.16299.0015
Audio Encoders:
  LPCM DVD-Audio MFT, {068A8476-9229-4CC0-9D49-2FC699DCD30A}, 0x1, mfaudiocnv.dll, 10.00.16299.0015
  MP3 Encoder ACM Wrapper MFT, {11103421-354C-4CCA-A7A3-1AFF9A5B6701}, 0x1, mfcore.dll, 10.00.16299.0064
  Microsoft FLAC Audio Encoder MFT, {128509E9-C44E-45DC-95E9-C255B8F466A6}, 0x1, MSFlacEncoder.dll, 10.00.16299.0015
  WM Speech Encoder DMO, CLSID_CWMSPEncMediaObject2, 0x1, WMSPDMOE.DLL, 10.00.16299.0015
  MS AMRNB Encoder MFT, {2FAE8AFE-04A3-423A-A814-85DB454712B0}, 0x1, MSAMRNBEncoder.dll, 10.00.16299.0015
  Microsoft MPEG-2 Audio Encoder MFT, {46A4DD5C-73F8-4304-94DF-308F760974F4}, 0x1, msmpeg2enc.dll, 10.00.16299.0015
  WMAudio Encoder MFT, CLSID_CWMAEncMediaObject, 0x1, WMADMOE.DLL, 10.00.16299.0015
  Microsoft AAC Audio Encoder MFT, {93AF0C51-2275-45D2-A35B-F2BA21CAED00}, 0x1, mfAACEnc.dll, 10.00.16299.0015
  Microsoft ALAC Audio Encoder MFT, {9AB6A28C-748E-4B6A-BFFF-CC443B8E8FB4}, 0x1, MSAlacEncoder.dll, 10.00.16299.0015
  Microsoft Dolby Digital Encoder MFT, {AC3315C9-F481-45D7-826C-0B406C1F64B8}, 0x1, msac3enc.dll, 10.00.16299.0015
Audio Effects:
  AEC, CLSID_CWMAudioAEC, 0x1, mfwmaaec.dll, 10.00.16299.0015
  Resampler MFT, CLSID_CResamplerMediaObject, 0x1, resampledmo.dll, 10.00.16299.0015
Multiplexers:
  Microsoft MPEG2 Multiplexer MFT, {AB300F71-01AB-46D2-AB6C-64906CB03258}, 0x2, mfmpeg2srcsnk.dll, 10.00.16299.0064
Others:
  Microsoft H264 Video Remux (MPEG2TSToMP4) MFT, {05A47EBB-8BF0-4CBF-AD2F-3B71D75866F5}, 0x1, msmpeg2vdec.dll, 10.00.16299.0015


--------------------------------------------
Media Foundation Enabled Hardware Categories
--------------------------------------------

[HKEY_LOCAL_MACHINE\Software\Microsoft\Windows Media Foundation\HardwareMFT]

EnableDecoders = 1
EnableEncoders = 1


-------------------------------------
Media Foundation Byte Stream Handlers
-------------------------------------

[HKEY_LOCAL_MACHINE\Software\Microsoft\Windows Media Foundation\ByteStreamHandlers]
[HKEY_LOCAL_MACHINE\Software\Classes\MediaFoundation\MediaSources\Preferred]

<file ext. or MIME type>, <handler CLSID>, <brief description>[, Preferred]

.3g2, {271C3902-6095-4C45-A22F-20091816EE9E}, MPEG4 Byte Stream Handler, Preferred
.3gp, {271C3902-6095-4C45-A22F-20091816EE9E}, MPEG4 Byte Stream Handler, Preferred
.3gp2, {271C3902-6095-4C45-A22F-20091816EE9E}, MPEG4 Byte Stream Handler, Preferred
.3gpp, {271C3902-6095-4C45-A22F-20091816EE9E}, MPEG4 Byte Stream Handler, Preferred
.aac, {926F41F7-003E-4382-9E84-9E953BE10562}, ADTS Byte Stream Handler, Preferred
.ac3, {46031BA1-083F-47D9-8369-23C92BDAB2FF}, AC-3 Byte Stream Handler, Preferred
.adt, {926F41F7-003E-4382-9E84-9E953BE10562}, ADTS Byte Stream Handler, Preferred
.adts, {926F41F7-003E-4382-9E84-9E953BE10562}, ADTS Byte Stream Handler, Preferred
.am?, {EFE6208A-0A2C-49FA-8A01-3768B559B6DA}, MF AMRNB Media Source ByteStreamHandler
.amr, {EFE6208A-0A2C-49FA-8A01-3768B559B6DA}, MF AMRNB Media Source ByteStreamHandler, Preferred
.asf, {41457294-644C-4298-A28A-BD69F2C0CF3B}, ASF Byte Stream Handler, Preferred
.avi, {7AFA253E-F823-42F6-A5D9-714BDE467412}, AVI Byte Stream Handler, Preferred
.dvr-ms, {65964407-A5D8-4060-85B0-1CCD63F768E2}, dvr-ms Byte Stream Handler, Preferred
.dvr-ms, {A8721937-E2FB-4D7A-A9EE-4EB08C890B6E}, MF SBE Source ByteStreamHandler
.ec3, {46031BA1-083F-47D9-8369-23C92BDAB2FF}, AC-3 Byte Stream Handler, Preferred
.flac, {0E41CFB8-0506-40F4-A516-77CC23642D91}, MF FLAC Media Source ByteStreamHandler, Preferred
.m2t, {40871C59-AB40-471F-8DC3-1F259D862479}, MPEG2 Byte Stream Handler, Preferred
.m2ts, {40871C59-AB40-471F-8DC3-1F259D862479}, MPEG2 Byte Stream Handler, Preferred
.m4a, {271C3902-6095-4C45-A22F-20091816EE9E}, MPEG4 Byte Stream Handler, Preferred
.m4v, {271C3902-6095-4C45-A22F-20091816EE9E}, MPEG4 Byte Stream Handler, Preferred
.mk3d, {1F9A2C18-D89E-463E-B4F4-BB90152ACC64}, MKV Byte Stream Handler, Preferred
.mka, {1F9A2C18-D89E-463E-B4F4-BB90152ACC64}, MKV Byte Stream Handler, Preferred
.mks, {1F9A2C18-D89E-463E-B4F4-BB90152ACC64}, MKV Byte Stream Handler, Preferred
.mkv, {1F9A2C18-D89E-463E-B4F4-BB90152ACC64}, MKV Byte Stream Handler, Preferred
.mod, {40871C59-AB40-471F-8DC3-1F259D862479}, MPEG2 Byte Stream Handler, Preferred
.mov, {271C3902-6095-4C45-A22F-20091816EE9E}, MPEG4 Byte Stream Handler, Preferred
.mp2v, {40871C59-AB40-471F-8DC3-1F259D862479}, MPEG2 Byte Stream Handler, Preferred
.mp3, {A82E50BA-8E92-41EB-9DF2-433F50EC2993}, MP3 Byte Stream Handler, Preferred
.mp4, {271C3902-6095-4C45-A22F-20091816EE9E}, MPEG4 Byte Stream Handler, Preferred
.mp4v, {271C3902-6095-4C45-A22F-20091816EE9E}, MPEG4 Byte Stream Handler, Preferred
.mpa, {A82E50BA-8E92-41EB-9DF2-433F50EC2993}, MP3 Byte Stream Handler, Preferred
.mpeg, {40871C59-AB40-471F-8DC3-1F259D862479}, MPEG2 Byte Stream Handler, Preferred
.mpg, {40871C59-AB40-471F-8DC3-1F259D862479}, MPEG2 Byte Stream Handler, Preferred
.mts, {40871C59-AB40-471F-8DC3-1F259D862479}, MPEG2 Byte Stream Handler, Preferred
.nsc, {B084785C-DDE0-4D30-8CA8-05A373E185BE}, NSC Byte Stream Handler, Preferred
.sami, {7A56C4CB-D678-4188-85A8-BA2EF68FA10D}, SAMI Byte Stream Handler, Preferred
.smi, {7A56C4CB-D678-4188-85A8-BA2EF68FA10D}, SAMI Byte Stream Handler, Preferred
.tod, {40871C59-AB40-471F-8DC3-1F259D862479}, MPEG2 Byte Stream Handler, Preferred
.ts, {40871C59-AB40-471F-8DC3-1F259D862479}, MPEG2 Byte Stream Handler, Preferred
.tts, {40871C59-AB40-471F-8DC3-1F259D862479}, MPEG2 Byte Stream Handler, Preferred
.uvu, {271C3902-6095-4C45-A22F-20091816EE9E}, MPEG4 Byte Stream Handler, Preferred
.vob, {40871C59-AB40-471F-8DC3-1F259D862479}, MPEG2 Byte Stream Handler, Preferred
.wav, {42C9B9F5-16FC-47EF-AF22-DA05F7C842E3}, WAV Byte Stream Handler, Preferred
.weba, {1F9A2C18-D89E-463E-B4F4-BB90152ACC64}, WEBM Byte Stream Handler, Preferred
.webm, {1F9A2C18-D89E-463E-B4F4-BB90152ACC64}, WEBM Byte Stream Handler, Preferred
.wm, {41457294-644C-4298-A28A-BD69F2C0CF3B}, ASF Byte Stream Handler, Preferred
.wma, {41457294-644C-4298-A28A-BD69F2C0CF3B}, ASF Byte Stream Handler, Preferred
.wmv, {41457294-644C-4298-A28A-BD69F2C0CF3B}, ASF Byte Stream Handler, Preferred
.wtv, {65964407-A5D8-4060-85B0-1CCD63F768E2}, WTV Byte Stream Handler, Preferred
audio/3gpp, {271C3902-6095-4C45-A22F-20091816EE9E}, MPEG4 Byte Stream Handler, Preferred
audio/3gpp2, {271C3902-6095-4C45-A22F-20091816EE9E}, MPEG4 Byte Stream Handler, Preferred
audio/aac, {926F41F7-003E-4382-9E84-9E953BE10562}, ADTS Byte Stream Handler, Preferred
audio/aacp, {926F41F7-003E-4382-9E84-9E953BE10562}, ADTS Byte Stream Handler, Preferred
audio/eac3, {46031BA1-083F-47D9-8369-23C92BDAB2FF}, AC-3 Byte Stream Handler, Preferred
audio/flac, {0E41CFB8-0506-40F4-A516-77CC23642D91}, MF FLAC Media Source ByteStreamHandler, Preferred
audio/L16, {3FFB3B8C-EB99-472B-8902-E1C1B05F07CF}, LPCM Byte Stream Handler, Preferred
audio/mp3, {A82E50BA-8E92-41EB-9DF2-433F50EC2993}, MP3 Byte Stream Handler, Preferred
audio/mp4, {271C3902-6095-4C45-A22F-20091816EE9E}, MPEG4 Byte Stream Handler, Preferred
audio/MP4A-LATM, {271C3902-6095-4C45-A22F-20091816EE9E}, MPEG4 Byte Stream Handler, Preferred
audio/mpa, {A82E50BA-8E92-41EB-9DF2-433F50EC2993}, MP3 Byte Stream Handler, Preferred
audio/mpeg, {A82E50BA-8E92-41EB-9DF2-433F50EC2993}, MP3 Byte Stream Handler, Preferred
audio/mpeg3, {A82E50BA-8E92-41EB-9DF2-433F50EC2993}, MP3 Byte Stream Handler, Preferred
audio/vnd.dlna.adts, {926F41F7-003E-4382-9E84-9E953BE10562}, ADTS Byte Stream Handler, Preferred
audio/vnd.dolby.dd-raw, {46031BA1-083F-47D9-8369-23C92BDAB2FF}, AC-3 Byte Stream Handler, Preferred
audio/wav, {42C9B9F5-16FC-47EF-AF22-DA05F7C842E3}, WAV Byte Stream Handler, Preferred
audio/webm, {1F9A2C18-D89E-463E-B4F4-BB90152ACC64}, WEBM Byte Stream Handler, Preferred
audio/x-aac, {926F41F7-003E-4382-9E84-9E953BE10562}, ADTS Byte Stream Handler, Preferred
audio/x-flac, {0E41CFB8-0506-40F4-A516-77CC23642D91}, MF FLAC Media Source ByteStreamHandler, Preferred
audio/x-m4a, {271C3902-6095-4C45-A22F-20091816EE9E}, MPEG4 Byte Stream Handler, Preferred
audio/x-matroska, {1F9A2C18-D89E-463E-B4F4-BB90152ACC64}, MKV Byte Stream Handler, Preferred
audio/x-mp3, {A82E50BA-8E92-41EB-9DF2-433F50EC2993}, MP3 Byte Stream Handler, Preferred
audio/x-mpeg, {A82E50BA-8E92-41EB-9DF2-433F50EC2993}, MP3 Byte Stream Handler, Preferred
audio/x-ms-wma, {41457294-644C-4298-A28A-BD69F2C0CF3B}, ASF Byte Stream Handler, Preferred
audio/x-wav, {42C9B9F5-16FC-47EF-AF22-DA05F7C842E3}, WAV Byte Stream Handler, Preferred
video/3gpp, {271C3902-6095-4C45-A22F-20091816EE9E}, MPEG4 Byte Stream Handler, Preferred
video/3gpp2, {271C3902-6095-4C45-A22F-20091816EE9E}, MPEG4 Byte Stream Handler, Preferred
video/avi, {7AFA253E-F823-42F6-A5D9-714BDE467412}, AVI Byte Stream Handler, Preferred
video/mp4, {271C3902-6095-4C45-A22F-20091816EE9E}, MPEG4 Byte Stream Handler, Preferred
video/mpeg, {40871C59-AB40-471F-8DC3-1F259D862479}, MPEG2 Byte Stream Handler, Preferred
video/msvideo, {7AFA253E-F823-42F6-A5D9-714BDE467412}, AVI Byte Stream Handler, Preferred
video/vnd.dece.mp4, {271C3902-6095-4C45-A22F-20091816EE9E}, MPEG4 Byte Stream Handler, Preferred
video/vnd.dlna.mpeg-tts, {40871C59-AB40-471F-8DC3-1F259D862479}, MPEG2 Byte Stream Handler, Preferred
video/webm, {1F9A2C18-D89E-463E-B4F4-BB90152ACC64}, WEBM Byte Stream Handler, Preferred
video/x-m4v, {271C3902-6095-4C45-A22F-20091816EE9E}, MPEG4 Byte Stream Handler, Preferred
video/x-matroska, {1F9A2C18-D89E-463E-B4F4-BB90152ACC64}, MKV Byte Stream Handler, Preferred
video/x-ms-asf, {41457294-644C-4298-A28A-BD69F2C0CF3B}, ASF Byte Stream Handler, Preferred
video/x-ms-wm, {41457294-644C-4298-A28A-BD69F2C0CF3B}, ASF Byte Stream Handler, Preferred
video/x-ms-wmv, {41457294-644C-4298-A28A-BD69F2C0CF3B}, ASF Byte Stream Handler, Preferred
video/x-msvideo, {7AFA253E-F823-42F6-A5D9-714BDE467412}, AVI Byte Stream Handler, Preferred


--------------------------------
Media Foundation Scheme Handlers
--------------------------------

[HKEY_LOCAL_MACHINE\Software\Microsoft\Windows Media Foundation\SchemeHandlers]
[HKEY_LOCAL_MACHINE\Software\Classes\MediaFoundation\MediaSources\Preferred]

<URL type>, <handler CLSID>, <brief description>[, Preferred]

file:, {477EC299-1421-4BDD-971F-7CCB933F21AD}, File Scheme Handler, Preferred
http:, {44CB442B-9DA9-49DF-B3FD-023777B16E50}, Http Scheme Handler
http:, {9EC4B4F9-3029-45AD-947B-344DE2A249E2}, Urlmon Scheme Handler
http:, {E9F4EBAB-D97B-463E-A2B1-C54EE3F9414D}, Net Scheme Handler, Preferred
httpd:, {44CB442B-9DA9-49DF-B3FD-023777B16E50}, Http Scheme Handler, Preferred
https:, {37A61C8B-7F8E-4D08-B12B-248D73E9AB4F}, Secure Http Scheme Handler, Preferred
httpsd:, {37A61C8B-7F8E-4D08-B12B-248D73E9AB4F}, Secure Http Scheme Handler, Preferred
httpt:, {E9F4EBAB-D97B-463E-A2B1-C54EE3F9414D}, Net Scheme Handler, Preferred
httpu:, {E9F4EBAB-D97B-463E-A2B1-C54EE3F9414D}, Net Scheme Handler, Preferred
mcast:, {E9F4EBAB-D97B-463E-A2B1-C54EE3F9414D}, Net Scheme Handler, Preferred
mcrecv:, {FA6D33D4-9405-4BA5-9983-12604AC8E77A}, Miracast Sink Scheme Handler, Preferred
mms:, {E9F4EBAB-D97B-463E-A2B1-C54EE3F9414D}, Net Scheme Handler, Preferred
ms-appdata:, {CFC81939-3886-4ACF-9692-DA58037AE716}, MsAppData Scheme Handler, Preferred
ms-appx-web:, {8DB0224B-3D65-4F6F-8E12-BEB4B78B8974}, MsAppxWeb Scheme Handler, Preferred
ms-appx:, {8DB0224B-3D65-4F6F-8E12-BEB4B78B8974}, MsAppx Scheme Handler, Preferred
ms-winsoundevent:, {F79A6BF9-7415-4CF3-AE10-4559509ABC3C}, Sound Event Scheme Handler, Preferred
rtsp:, {E9F4EBAB-D97B-463E-A2B1-C54EE3F9414D}, Net Scheme Handler, Preferred
rtspt:, {E9F4EBAB-D97B-463E-A2B1-C54EE3F9414D}, Net Scheme Handler, Preferred
rtspu:, {E9F4EBAB-D97B-463E-A2B1-C54EE3F9414D}, Net Scheme Handler, Preferred
sdp:, {E9F4EBAB-D97B-463E-A2B1-C54EE3F9414D}, Net Scheme Handler, Preferred


-------------------------------------
Preferred Media Foundation Transforms
-------------------------------------

[HKEY_LOCAL_MACHINE\Software\Classes\MediaFoundation\Transforms\Preferred]

<media subtype GUID>, [<transform friendly name>, ]<transform CLSID>

{E06D802C-DB46-11CF-B4D1-00805F6CBBEA}, Microsoft Dolby Digital Plus Decoder MFT, {177C0AFE-900B-48D4-9E4C-57ADD250B3D4}
MEDIASUBTYPE_DOLBY_DDPLUS, Microsoft Dolby Digital Plus Decoder MFT, {177C0AFE-900B-48D4-9E4C-57ADD250B3D4}
{00002000-0000-0010-8000-00AA00389B71}, Microsoft Dolby Digital Plus Decoder MFT, {177C0AFE-900B-48D4-9E4C-57ADD250B3D4}
{EB27CEC4-163E-4CA3-8B74-8E25F91B517E}, Dolby TrueHD IEC-61937 converter MFT, {CF5EEEDF-0E92-4B3B-A161-BD0FFE545E4B}
MFVideoFormat_MPEG2, Microsoft MPEG Video Decoder MFT, {2D709E52-123F-49B5-9CBC-9AF5CDE28FB9}
{A61AC364-AD0E-4744-89FF-213CE0DF8804}, DTS IEC-61937 converter MFT, {D035E24C-C877-42D7-A795-2A8A339B472F}
{A2E58EB7-0FA9-48BB-A40C-FA0E156D0645}, DTS IEC-61937 converter MFT, {D035E24C-C877-42D7-A795-2A8A339B472F}
{7634706D-0000-0010-8000-00AA00389B71}, Mpeg4s Decoder MFT, CLSID_CMpeg4sDecMFT
{73616D72-767A-494D-B478-F29D25DC9037}, MS AMRNB Decoder MFT, {265011AE-5481-4F77-A295-ABB6FFE8D63E}
MEDIASUBTYPE_mp4s, Mpeg4s Decoder MFT, CLSID_CMpeg4sDecMFT
MFVideoFormat_DVSL, DV Decoder MFT, {404A6DE5-D4D6-4260-9BC7-5A6CBD882432}
MFVideoFormat_DVSD, DV Decoder MFT, {404A6DE5-D4D6-4260-9BC7-5A6CBD882432}
MFVideoFormat_DVHD, DV Decoder MFT, {404A6DE5-D4D6-4260-9BC7-5A6CBD882432}
{63616C61-0000-0010-8000-00AA00389B71}, Microsoft ALAC Audio Decoder MFT, {C0CD7D12-31FC-4BBC-B363-7322EE3E1879}
MFVideoFormat_MP4V, Mpeg4s Decoder MFT, CLSID_CMpeg4sDecMFT
MFVideoFormat_MP4S, Mpeg4s Decoder MFT, CLSID_CMpeg4sDecMFT
{53314356-0000-0010-8000-00AA00389B71}, WMVideo Decoder MFT, CLSID_CWMVDecMediaObject
MEDIASUBTYPE_WMVR, WMVideo Decoder MFT, CLSID_CWMVDecMediaObject
MEDIASUBTYPE_WMVP, WMVideo Decoder MFT, CLSID_CWMVDecMediaObject
MFVideoFormat_MJPG, MJPEG Decoder MFT, {CB17E772-E1CC-4633-8450-5617AF577905}
MEDIASUBTYPE_WMVA, WMVideo Decoder MFT, CLSID_CWMVDecMediaObject
{3F40F4F0-5622-4FF8-B6D8-A17A584BEE5E}, Microsoft H264 Video Decoder MFT, CLSID_CMSH264DecoderMFT
MEDIASUBTYPE_mpg4, Mpeg4 Decoder MFT, CLSID_CMpeg4DecMediaObject
MEDIASUBTYPE_MPG4, Mpeg4 Decoder MFT, CLSID_CMpeg4DecMediaObject
MFVideoFormat_H264, Microsoft H264 Video Decoder MFT, CLSID_CMSH264DecoderMFT
MFVideoFormat_WMV3, WMVideo Decoder MFT, CLSID_CWMVDecMediaObject
{33363248-0000-0010-8000-00AA00389B71}, Mpeg4s Decoder MFT, CLSID_CMpeg4sDecMFT
MEDIASUBTYPE_mp43, Mpeg43 Decoder MFT, CLSID_CMpeg43DecMediaObject
MFVideoFormat_MP43, Mpeg43 Decoder MFT, CLSID_CMpeg43DecMediaObject
MEDIASUBTYPE_m4s2, Mpeg4s Decoder MFT, CLSID_CMpeg4sDecMFT
MFVideoFormat_WMV2, WMVideo Decoder MFT, CLSID_CWMVDecMediaObject
MFVideoFormat_MSS2, WMV Screen decoder MFT, CLSID_CMSSCDecMediaObject
MFVideoFormat_M4S2, Mpeg4s Decoder MFT, CLSID_CMpeg4sDecMFT
MEDIASUBTYPE_WVP2, WMVideo Decoder MFT, CLSID_CWMVDecMediaObject
MEDIASUBTYPE_mp42, Mpeg4 Decoder MFT, CLSID_CMpeg4DecMediaObject
MEDIASUBTYPE_MP42, Mpeg4 Decoder MFT, CLSID_CMpeg4DecMediaObject
MFVideoFormat_WMV1, WMVideo Decoder MFT, CLSID_CWMVDecMediaObject
MFVideoFormat_MSS1, WMV Screen decoder MFT, CLSID_CMSSCDecMediaObject
MFVideoFormat_MPG1, Microsoft MPEG Video Decoder MFT, {2D709E52-123F-49B5-9CBC-9AF5CDE28FB9}
MFVideoFormat_WVC1, WMVideo Decoder MFT, CLSID_CWMVDecMediaObject
{30395056-0000-0010-8000-00AA00389B71}, Microsoft WebM MF VP8 Decoder Transform, {E3AAF548-C9A4-4C6E-234D-5ADA374B0000}
{30385056-0000-0010-8000-00AA00389B71}, Microsoft WebM MF VP8 Decoder Transform, {E3AAF548-C9A4-4C6E-234D-5ADA374B0000}
MFVideoFormat_DVC, DV Decoder MFT, {404A6DE5-D4D6-4260-9BC7-5A6CBD882432}
{0000F1AC-0000-0010-8000-00AA00389B71}, Microsoft FLAC Audio Decoder MFT, {6B0B3E6B-A2C5-4514-8055-AFE8A95242D9}
{00007361-0000-0010-8000-00AA00389B71}, MS AMRNB Decoder MFT, {265011AE-5481-4F77-A295-ABB6FFE8D63E}
{0000704F-0000-0010-8000-00AA00389B71}, Microsoft Opus Audio Decoder MFT, {63E17C10-2D43-4C42-8FE3-8D8B63E46A6A}
{00006C61-0000-0010-8000-00AA00389B71}, Microsoft ALAC Audio Decoder MFT, {C0CD7D12-31FC-4BBC-B363-7322EE3E1879}
{00002001-0000-0010-8000-00AA00389B71}, DTS IEC-61937 converter MFT, {D035E24C-C877-42D7-A795-2A8A339B472F}
MFAudioFormat_AAC, Microsoft AAC Audio Decoder MFT, CLSID_CMSAACDecMFT
MFAudioFormat_ADTS, Microsoft AAC Audio Decoder MFT, CLSID_CMSAACDecMFT
MFAudioFormat_WMAudio_Lossless, WMAudio Decoder MFT, CLSID_CWMADecMediaObject
MFAudioFormat_WMAudioV9, WMAudio Decoder MFT, CLSID_CWMADecMediaObject
MFAudioFormat_WMAudioV8, WMAudio Decoder MFT, CLSID_CWMADecMediaObject
MEDIASUBTYPE_MSAUDIO1, WMAudio Decoder MFT, CLSID_CWMADecMediaObject
MEDIASUBTYPE_RAW_AAC1, Microsoft AAC Audio Decoder MFT, CLSID_CMSAACDecMFT
MFAudioFormat_MP3, MP3 Decoder MFT, CLSID_CMP3DecMediaObject
MFAudioFormat_MPEG, Microsoft MPEG Audio Decoder MFT, {70707B39-B2CA-4015-ABEA-F8447D22D88B}
{00000031-0000-0010-8000-00AA00389B71}, GSM ACM Wrapper MFT, {4A76B469-7B66-4DD4-BA2D-DDF244C766DC}
{00000011-0000-0010-8000-00AA00389B71}, IMA ADPCM ACM Wrapper MFT, {A16E1BFF-A80D-48AD-AECD-A35C005685FE}
WMMEDIASUBTYPE_WMSP2, WMSpeech Decoder DMO, CLSID_CWMSPDecMediaObject
MFAudioFormat_MSP1, WMSpeech Decoder DMO, CLSID_CWMSPDecMediaObject
KSDATAFORMAT_SUBTYPE_MULAW, G711 Wrapper MFT, {92B66080-5E2D-449E-90C4-C41F268E5514}
{00000006-0000-0010-8000-00AA00389B71}, A-law Wrapper MFT, {36CB6E0C-78C1-42B2-9943-846262F31786}
KSDATAFORMAT_SUBTYPE_ADPCM, ADPCM ACM Wrapper MFT, {CA34FE0A-5722-43AD-AF23-05F7650257DD}


-------------------------------------
Disabled Media Foundation Transforms
-------------------------------------

[HKEY_LOCAL_MACHINE\Software\Classes\MediaFoundation\Transforms\DoNotUse]

<transform CLSID>



------------------------
Disabled Media Sources
------------------------

[HKEY_LOCAL_MACHINE\Software\Classes\MediaFoundation\MediaSources\DoNotUse]

<media source CLSID>


---------------
EVR Power Information
---------------
Current Setting: {5C67A112-A4C9-483F-B4A7-1D473BECAFDC} (Quality) 
  Quality Flags: 2576
    Enabled:
    Force throttling
    Allow half deinterlace
    Allow scaling
    Decode Power Usage: 100
  Balanced Flags: 1424
    Enabled:
    Force throttling
    Allow batching
    Force half deinterlace
    Force scaling
    Decode Power Usage: 50
  PowerFlags: 1424
    Enabled:
    Force throttling
    Allow batching
    Force half deinterlace
    Force scaling
    Decode Power Usage: 0

---------------
Diagnostics
---------------

Windows Error Reporting:
+++ WER0 +++:
Fault bucket 127983441306, type 5
Event Name: WindowsNonFatalSuspectedDeadlock
Response: Not available
Cab Id: 0

Problem signature:
P1: 2
P2: Unknown
P3: Geolocation.dll
P4: GetGeopositionOperationImpl
P5: 420000
P6: Windows::Devices::Geolocation::GetGeopositionOperationImpl::InitializeAndStart
P7: 
P8: 
P9: 
P10: 


+++ WER1 +++:
Fault bucket , type 0
Event Name: WindowsNonFatalSuspectedDeadlock
Response: Not available
Cab Id: 0

Problem signature:
P1: 2
P2: Unknown
P3: Geolocation.dll
P4: GetGeopositionOperationImpl
P5: 420000
P6: Windows::Devices::Geolocation::GetGeopositionOperationImpl::InitializeAndStart
P7: 
P8: 
P9: 
P10: 


+++ WER2 +++:
Fault bucket , type 0
Event Name: WindowsNonFatalSuspectedDeadlock
Response: Not available
Cab Id: 0

Problem signature:
P1: 2
P2: Unknown
P3: Geolocation.dll
P4: GetGeopositionOperationImpl
P5: 420000
P6: Windows::Devices::Geolocation::GetGeopositionOperationImpl::InitializeAndStart
P7: 
P8: 
P9: 
P10: 


+++ WER3 +++:
Fault bucket 108304031411, type 1
Event Name: APPCRASH
Response: Not available
Cab Id: 0

Problem signature:
P1: AAM Updates Notifier.exe
P2: 9.0.0.281
P3: 5776ade0
P4: UpdaterCore.dll
P5: 9.0.0.30
P6: 5773799f
P7: c0000005
P8: 0006287e
P9: 
P10: 


+++ WER4 +++:
Fault bucket 127983441306, type 5
Event Name: WindowsNonFatalSuspectedDeadlock
Response: Not available
Cab Id: 0

Problem signature:
P1: 2
P2: Unknown
P3: Geolocation.dll
P4: GetGeopositionOperationImpl
P5: 420000
P6: Windows::Devices::Geolocation::GetGeopositionOperationImpl::InitializeAndStart
P7: 
P8: 
P9: 
P10: 


+++ WER5 +++:
Fault bucket , type 0
Event Name: WindowsNonFatalSuspectedDeadlock
Response: Not available
Cab Id: 0

Problem signature:
P1: 2
P2: Unknown
P3: Geolocation.dll
P4: GetGeopositionOperationImpl
P5: 420000
P6: Windows::Devices::Geolocation::GetGeopositionOperationImpl::InitializeAndStart
P7: 
P8: 
P9: 
P10: 


+++ WER6 +++:
Fault bucket , type 0
Event Name: WindowsNonFatalSuspectedDeadlock
Response: Not available
Cab Id: 0

Problem signature:
P1: 2
P2: Unknown
P3: Geolocation.dll
P4: GetGeopositionOperationImpl
P5: 420000
P6: Windows::Devices::Geolocation::GetGeopositionOperationImpl::InitializeAndStart
P7: 
P8: 
P9: 
P10: 


+++ WER7 +++:
Fault bucket 108304031411, type 1
Event Name: APPCRASH
Response: Not available
Cab Id: 0

Problem signature:
P1: AAM Updates Notifier.exe
P2: 9.0.0.281
P3: 5776ade0
P4: UpdaterCore.dll
P5: 9.0.0.30
P6: 5773799f
P7: c0000005
P8: 0006287e
P9: 
P10: 


+++ WER8 +++:
Fault bucket 129599934989, type 5
Event Name: RADAR_PRE_LEAK_64
Response: Not available
Cab Id: 0

Problem signature:
P1: UE4Editor.exe
P2: 4.18.1.0
P3: 10.0.16299.2.0.0
P4: 
P5: 
P6: 
P7: 
P8: 
P9: 
P10: 


+++ WER9 +++:
Fault bucket 127983441306, type 5
Event Name: WindowsNonFatalSuspectedDeadlock
Response: Not available
Cab Id: 0

Problem signature:
P1: 2
P2: Unknown
P3: Geolocation.dll
P4: GetGeopositionOperationImpl
P5: 420000
P6: Windows::Devices::Geolocation::GetGeopositionOperationImpl::InitializeAndStart
P7: 
P8: 
P9: 
P10: 


